<svg width="375" height="211" viewBox="0 0 375 211" fill="none" xmlns="http://www.w3.org/2000/svg">
<path d="M-1 0L374 0V166H-1L-1 0Z" fill="white"/>
<ellipse cx="178.5" cy="154.5" rx="210.5" ry="56.5" fill="white"/>
</svg>